…
Target shape requires to concatenate all products in one purchase order transaction together:

``` r
orl3 = orl2 %>%
  dplyr::collect() %>%
  dplyr::group_by(purchase_order_id) %>%
  dplyr::mutate(key = sprintf("x%s", row_number())) %>%
  dplyr::ungroup() %>%
  dplyr::mutate( row = row_number() ) 
orl3
  ## # A tibble: 150 x 5
  ##    purchase_order_id                 title amount   key   row
  ##                <int>                 <chr>  <int> <chr> <int>
  ##  1                 1       citroen egsoz a      2    x1     1
  ##  2                 1        kia filitre 20      4    x2     2
  ##  3                 1     opel aynalar fk 4      5    x3     3
  ##  4                 1        opel egsoz 160      1    x4     4
  ##  5                 2    bmw silecekler 120      3    x1     5
  ##  6                 2     bmw silecekler 39      1    x2     6
  ##  7                 2 citroen yağlama 1.9 j      4    x3     7
  ##  8                 2    honda şanzıman 120      2    x4     8
  ##  9                 2          opel far 160      5    x5     9
  ## 10                 2   twingo yakıt 3.2 jk      5    x6    10
  ## # ... with 140 more rows

orl4 = orl3 %>%
  dplyr::select(purchase_order_id, key, title) %>%
  tidyr::spread(key = key, value = title) 
orl4 
  ## # A tibble: 30 x 11
  ##    purchase_order_id                      x1   x10                     x2
  ##  *             <int>                   <chr> <chr>                  <chr>
  ##  1                 1         citroen egsoz a  <NA>         kia filitre 20
  ##  2                 2      bmw silecekler 120  <NA>      bmw silecekler 39
  ##  3                 3 honda göstergeler 1.5 j  <NA> kia yönlendirme 3.2 jk
  ##  4                 4 citroen göstergeler 392  <NA>      ford elektrik cax
  ##  5                 5         honda fren fk 4  <NA>  mercedes balans 1.5 j
  ##  6                 6         citroen far 392  <NA>       dacia aynalar 12
  ##  7                 7         dacia rot 1.9 j  <NA>                   <NA>
  ##  8                 8         citroen diğer a  <NA>       dacia aynalar 12
  ##  9                 9      citroen mekanik 20  <NA>   ford yönlendirme 160
  ## 10                10    ford yönlendirme 160  <NA>        opel aynalar 39
  ## # ... with 20 more rows, and 7 more variables: x3 <chr>, x4 <chr>,
  ## #   x5 <chr>, x6 <chr>, x7 <chr>, x8 <chr>, x9 <chr>
```
…
# Data Analysis Steps
res = orl4 %>%
  dplyr::select(-purchase_order_id) %>%
  dplyr::mutate(transaction_id = row_number()) %>%
  tidyr::gather(key, product, -transaction_id, na.rm = TRUE, convert = TRUE) %>%
  dplyr::arrange(transaction_id) %>%
  exploratory::do_apriori(product, transaction_id, min_support = 0.0001) %>%
  dplyr::filter(support > 0.0004) %>%
  dplyr::group_by(rhs) %>%
  dplyr::top_n(3, lift)
res

  ## # A tibble: 9,966 x 5
  ## # Groups:   rhs [115]
  ##                      lhs                   rhs    support confidence  lift
  ##                    <chr>                 <chr>      <dbl>      <dbl> <dbl>
  ##  1       honda fren fk 4 mercedes balans 1.5 j 0.03333333        1.0    15
  ##  2 mercedes balans 1.5 j       honda fren fk 4 0.03333333        0.5    15
  ##  3     bmw mekanik 1.7 j      citroen fren 105 0.03333333        1.0    30
  ##  4      citroen fren 105     bmw mekanik 1.7 j 0.03333333        1.0    30
  ##  5     bmw mekanik 1.7 j       renault rot 1.3 0.03333333        1.0    30
  ##  6       renault rot 1.3     bmw mekanik 1.7 j 0.03333333        1.0    30
  ##  7          dacia aks 20        kia balans cax 0.03333333        1.0    30
  ##  8        kia balans cax          dacia aks 20 0.03333333        1.0    30
  ##  9          dacia aks 20         kia far 1.5 j 0.03333333        1.0    30
  ## 10         kia far 1.5 j          dacia aks 20 0.03333333        1.0    30
  ## # ... with 9,956 more rows
```

```r
res = orl4 %>%
  dplyr::select(-purchase_order_id) %>%
  dplyr::mutate(transaction_id = row_number()) %>%
  tidyr::gather(key, product, -transaction_id, na.rm = TRUE, convert = TRUE) %>%
  dplyr::arrange(transaction_id) %>%
  exploratory::do_apriori(product, transaction_id, min_support = 0.0001) %>%
  dplyr::filter(support > 0.0004) %>%
  dplyr::group_by(rhs) %>%
  dplyr::top_n(3, lift)
res
  ## # A tibble: 9,966 x 5
  ## # Groups:   rhs [115]
  ##                      lhs                   rhs    support confidence  lift
  ##                    <chr>                 <chr>      <dbl>      <dbl> <dbl>
  ##  1       honda fren fk 4 mercedes balans 1.5 j 0.03333333        1.0    15
  ##  2 mercedes balans 1.5 j       honda fren fk 4 0.03333333        0.5    15
  ##  3     bmw mekanik 1.7 j      citroen fren 105 0.03333333        1.0    30
  ##  4      citroen fren 105     bmw mekanik 1.7 j 0.03333333        1.0    30
  ##  5     bmw mekanik 1.7 j       renault rot 1.3 0.03333333        1.0    30
  ##  6       renault rot 1.3     bmw mekanik 1.7 j 0.03333333        1.0    30
  ##  7          dacia aks 20        kia balans cax 0.03333333        1.0    30
  ##  8        kia balans cax          dacia aks 20 0.03333333        1.0    30
  ##  9          dacia aks 20         kia far 1.5 j 0.03333333        1.0    30
  ## 10         kia far 1.5 j          dacia aks 20 0.03333333        1.0    30
  ## # ... with 9,956 more rows
```
